{
	"id": "https://schema.org/identifier",
	"creation_timestamp": "https://schema.org/DateTime",
	"edit_timestamp": "https://schema.org/DateTime",
	"edit_count": "https://schema.org/Number",
	"user_id": "https://schema.org/identifier",
	"type": "https://schema.org/fileType",
	"name": "https://schema.org/Text",
	"size": "https://schema.org/Number"
}
