{
	"creation_timestamp": "https://schema.org/DateTime",
	"edit_timestamp": "https://schema.org/DateTime",
	"edit_count": "https://schema.org/Number",
	"category_create": "https://schema.org/Boolean",
	"category_delete": "https://schema.org/Boolean",
	"category_edit": "https://schema.org/Boolean",
	"category_move": "https://schema.org/Boolean",
	"category_view": "https://schema.org/Boolean",
	"forum_create": "https://schema.org/Boolean",
	"forum_delete": "https://schema.org/Boolean",
	"forum_edit": "https://schema.org/Boolean",
	"forum_merge": "https://schema.org/Boolean",
	"forum_move": "https://schema.org/Boolean",
	"forum_view": "https://schema.org/Boolean",
	"post_create": "https://schema.org/Boolean",
	"post_delete_own": "https://schema.org/Boolean",
	"post_delete_any": "https://schema.org/Boolean",
	"post_edit_own": "https://schema.org/Boolean",
	"post_edit_any": "https://schema.org/Boolean",
	"post_edit_vote": "https://schema.org/Boolean",
	"post_move_own": "https://schema.org/Boolean",
	"post_move_any": "https://schema.org/Boolean",
	"post_view": "https://schema.org/Boolean",
	"thread_create_approved": "https://schema.org/Boolean",
	"thread_create_unapproved": "https://schema.org/Boolean",
	"thread_delete_own": "https://schema.org/Boolean",
	"thread_delete_any": "https://schema.org/Boolean",
	"thread_edit_own": "https://schema.org/Boolean",
	"thread_edit_any": "https://schema.org/Boolean",
	"thread_edit_approval": "https://schema.org/Boolean",
	"thread_edit_lock_own": "https://schema.org/Boolean",
	"thread_edit_lock_any": "https://schema.org/Boolean",
	"thread_edit_pin": "https://schema.org/Boolean",
	"thread_edit_vote": "https://schema.org/Boolean",
	"thread_merge_own": "https://schema.org/Boolean",
	"thread_merge_any": "https://schema.org/Boolean",
	"thread_move_own": "https://schema.org/Boolean",
	"thread_move_any": "https://schema.org/Boolean",
	"thread_view": "https://schema.org/Boolean",
	"forum_id": "https://schema.org/identifier",
	"user_id": "https://schema.org/identifier"
}
