{
    "id": "https://schema.org/identifier",
    "creation_timestamp": "https://schema.org/DateTime",
    "edit_timestamp": "https://schema.org/DateTime",
    "edit_count": "https://schema.org/Number",
    "user_id": "https://schema.org/identifier",
    "email_is_verified": "https://schema.org/Boolean",
    "email": "https://schema.org/Text",
    "has_totp": "https://schema.org/Boolean"
}
