,Times,,,,,
,Iteration,,,,,Average
Result count,1,2,3,4,5
1,23.798,61.414,58.974,61.052,58.673,52.7822
2,70.116,72.37,57.194,55.996,72.693,65.6738
3,77.283,78.085,76.426,63.157,63.563,71.7028
4,72.278,97.415,70.195,72.166,69.927,76.3962
5,93.203,83.45,132.86,98.203,76.635,96.8702
6,82.922,81.418,88.724,82.602,89.438,85.0208
7,108.647,90.494,109.03,106.558,89.527,100.8512
8,112.17,97.618,95.444,98.701,96.573,100.1012
9,123.418,122.577,126.124,118.325,103.135,118.7158
10,132.955,114.899,113.344,130.144,117.792,121.8268
11,136.287,141.808,120.458,139.345,115.437,130.667
12,120.509,124.393,122.707,148.95,123.242,127.9602
13,151.555,130.506,128.535,157.707,154.521,144.5648
14,157.493,163.271,135.11,134.943,160.841,150.3316
15,157.414,171.349,149.319,147.024,167.468,158.5148
16,174.742,147.353,169.419,149.162,146.458,157.4268
17,151.661,182.634,154.042,182.05,152.339,164.5452
18,157.834,199.1,163.225,160.434,191.434,174.4054
19,189.623,197.672,199.875,180.6,199.871,193.5282
20,171.499,208.026,213.083,192.965,199.374,196.9894
21,183.848,208.785,214.426,205.615,210.69,204.6728
22,210.787,213.943,182.868,216.859,191.686,203.2286
23,226.559,225.197,226.255,192.652,222.822,218.697
24,198.824,230.968,224.125,207.982,232.503,218.8804
25,203.062,238.512,204.754,242.159,224.669,222.6312
26,212.764,246.439,245.243,236.26,210.239,230.189
27,227.728,279.104,229.063,240.431,255.81,246.4272
28,253.936,261.498,254.617,259.157,262.81,258.4036
29,229.879,242.609,234.245,254.112,259.673,244.1036
30,251.787,246.678,253.418,240.574,236.846,245.8606
31,258.376,257.185,257,240.793,222.157,247.1022
32,265.506,292.301,250.628,342.46,249.421,280.0632
33,290.447,303.574,264.044,304.526,266.608,285.8398
34,272.199,288.315,262.236,261.641,311.059,279.090
35,267.321,275.3,313.605,311.758,268.375,287.2718
36,316.814,313.676,274.988,295.489,324.063,305.006
37,311.319,316.929,327.386,310.752,274.696,308.2164
38,300.369,305.01,337.197,335.518,301.207,315.8602
39,301.462,311.863,341.571,335.304,313.036,320.6472
40,337.305,342.428,297.151,300.809,292.628,314.0642
41,341.617,334.27,358.247,374.212,332.58,348.1852
42,323.036,337.047,340.21,331.991,313.012,329.0592
43,343.177,373.391,315.204,357.495,343.244,346.5022
44,352.036,379.452,358.597,391.818,381.127,372.606
45,387.537,329.257,328.323,391.661,361.132,359.582
46,352.972,342.673,387.441,358.196,393.553,366.967
47,367.403,391.42,390.359,397.119,363.062,381.8726
48,407.117,365.786,402.096,349.241,393.304,383.5088
49,366.605,377.273,350.69,406.675,381.146,376.4778
50,397.56,413.762,388.534,354.278,387.898,388.4064
51,388.914,351.973,413.585,372.016,369.698,379.2372
52,376.946,369.483,362.667,388.099,379.269,375.2928
53,388.066,357.842,395.359,415.047,403.534,391.9696
54,422.354,400.678,420.794,413.59,358.421,403.1674
55,425.324,362.529,376.693,387.073,386.63,387.6498
56,371.7,371.223,420.688,452.405,433.414,409.886
57,421.036,387.427,378.928,390.33,388.946,393.3334
58,416.418,412.648,422.094,375.751,391.467,403.6756
59,370.623,425.084,394.815,411.182,441.449,408.6306
60,377.207,466.155,391.461,417.424,398.086,410.0666
61,424.523,381.634,391.859,418.471,428.951,409.0876
62,397.082,402.776,399.272,425.48,384.969,401.9158
63,448.816,407.164,385.298,411.166,381.209,406.7306
64,396.454,403.437,367.718,386.657,409.419,392.737
65,378.116,408.594,401.14,373.909,424.121,397.176
66,423.271,424.279,408.256,417.785,424.181,419.5544
67,398.813,389.138,421.661,404.643,458.243,414.4996
68,370.564,422.78,400.87,383.695,427.01,400.9838
69,391.984,384.223,373.918,427.098,364.04,388.2526
70,392.818,376.734,427.024,387.712,390.942,395.046
71,390.416,391.31,395.779,366.464,395.222,387.8382
72,387.813,342.207,407.63,414.991,362.973,383.1228
73,396.644,405.715,372.299,383.136,421.432,395.8452
74,423.477,374.354,397.676,424.387,403.28,404.6348
75,420.642,415.544,425.39,421.236,424.259,421.4142
76,408.18,410.655,365.033,381.87,425.563,398.2602
77,365.044,424.604,416.33,465.63,429.294,420.1804
78,427.327,423.607,401.457,418.784,395.086,413.2522
79,382.656,387.963,409.37,420.606,397.349,399.5888
80,407.3,392.047,399.499,387.022,427.24,402.6216
81,368.602,386.495,418.683,367.576,369.495,382.1702
82,366.764,421.474,394.691,407.929,415.933,401.3582
83,364.704,365.463,427.021,399.914,389.804,389.3812
84,417.892,354.929,381.485,397.772,371.043,384.6242
85,376.783,397.507,374.952,400.143,424.358,394.7486
86,419.745,397.417,390.776,380.862,430.686,403.8972
87,422.263,381.186,362.522,387.52,397.318,390.1618
88,399.177,391.892,381.563,388.056,409.365,394.0106
89,427.612,469.204,399.713,395.774,394.412,417.343
90,428.501,427.727,404.519,426.297,365.708,410.5504
91,390.203,429.683,386.718,416.659,424.636,409.5798
92,414.102,398.889,428.293,421.097,419.047,416.2856
93,392.793,426.597,395.576,410.519,413.679,407.8328
94,400.435,372.04,400.956,411.825,457.189,408.489
95,399.854,404.825,419.209,364.638,380.875,393.8802
96,426.866,401.119,422.679,415.094,425.917,418.335
97,426.512,395.975,371.806,431.373,391.681,403.4694
98,433.346,369.653,363.108,392.576,391.435,390.0236
99,425.259,377.78,397.223,427.355,368.805,399.2844
100,426.193,371.948,426.615,401.633,412.621,407.802
101,396.381,405.896,389.177,393.195,430.032,402.9362
102,398.598,418.01,424.886,364.721,427.645,406.772
103,395.952,397.335,383.843,423.018,369.927,394.015
104,395.991,464.65,366.808,424.758,392.409,408.9232
105,416.822,408.747,390.466,370.475,377.699,392.8418
106,403.757,373.325,394.949,426.694,407.624,401.2698
107,406.483,390.579,389.498,413.567,389.538,397.933
108,368.918,426.262,388.536,368.966,418.003,394.137
109,372.948,395.782,426.737,392.654,393.403,396.3048
110,469.47,400.537,433.345,417.671,386.977,421.600
111,430.306,424.212,395.433,422.986,371.418,408.871
112,426.586,395.944,428.181,402.024,369.08,404.363
113,438.226,370.452,401.601,378.365,368.013,391.3314
114,423.9,409.972,367.287,399.352,403.067,400.7156
115,374.811,390.035,400.004,401.489,406.576,394.583
116,428.078,404.821,395.504,370.503,398.105,399.4022
117,430.41,381.506,412.358,387.203,406.241,403.5436
118,467.495,393.104,419.75,406.655,390.873,415.5754
119,388.372,432.629,375.855,370.79,429.012,399.3316
120,432.536,368.28,371.169,482.467,457.142,422.3188
121,430.861,431.458,370.245,395.187,456.666,416.8834
122,409.527,403.759,371.992,399.306,381.164,393.1496
123,418.238,418.184,370.826,388.074,396.232,398.3108
124,377.273,432.982,402.403,388.486,417.339,403.6966
125,394.496,414.703,411.418,408.589,385.425,402.9262
126,406.715,367.161,370.564,404.114,426.37,394.9848
127,391.546,400.459,380.514,383.844,428.148,396.9022
128,387.828,373.559,426.053,428.969,405.95,404.4718
129,372.093,398.015,414.424,470.021,417.209,414.3524
130,399.958,406.247,425.041,374.171,393.704,399.8242
131,471.472,429.142,369.3,370.987,394.418,407.0638
132,431.685,455.199,429.015,403.543,404.788,424.846
133,399.852,372.116,396.694,401.313,411.521,396.2992
134,430.535,417.901,405.76,389.627,429.774,414.7194
135,402.846,374.047,410.764,411.273,431.943,406.1746
136,381.263,414.181,430.906,381.732,373.181,396.2526
137,429.522,429.877,425.786,396.72,371.218,410.6246
138,396.543,370.638,425.971,421.63,421.745,407.3054
139,409.173,401.485,432.261,433.21,414.541,418.134
140,396.054,436.327,428.016,373.478,410.204,408.8158
141,384.341,409.094,425.356,394.954,478.651,418.4792
142,400.496,433.622,375.616,400.124,413.076,404.5868
143,401.689,434.009,426.987,435.604,429.597,425.5772
144,421.346,424.983,406.088,407.482,391.983,410.3764
145,373.015,435.497,402.613,428.742,373.915,402.7564
146,376.431,380.1,385.491,399.449,401.24,388.5422
147,374.38,457.703,370.672,432.54,404.804,408.0198
148,417.675,421.405,383.516,429.77,418.124,414.098
149,428.565,395.603,431.694,424.862,410.041,418.153
150,396.43,424.969,467.528,434.178,373.743,419.3696
151,370.527,413.53,396.579,408.465,435.732,404.9666
152,424.654,374,393.713,416.806,429.683,407.7712
153,405.514,407.34,371.799,404.754,430.131,403.9076
154,416.674,427.433,406.997,375.446,435.992,412.5084
155,433.569,431.899,433.125,415.429,399.055,422.6154
156,396.668,380.84,385.861,413.782,401.624,395.755
157,374.334,409.071,393.837,461.754,372.634,402.326
158,423.691,404.881,373.968,413.425,387.601,400.7132
159,473.921,376.751,429.58,388.696,437.189,421.2274
160,420.669,372.24,406.356,409.269,424.708,406.6484
161,373.738,432.576,433.619,392.364,433.16,413.0914
162,421.347,434.66,432.656,431.647,431.723,430.4066
163,398.865,421.007,405.748,378.427,377.598,396.329
164,404.08,435.983,398.454,409.292,402.876,410.137
165,402.925,402.545,431.051,444.705,421.873,420.6198
166,399.325,427.462,401.086,404.778,381.742,402.8786
167,410.757,406.368,388.181,456.704,382.654,408.9328
168,450.114,420.256,434.793,421.594,375.622,420.4758
169,427.83,404.992,433.96,397.183,383.392,409.4714
170,403.57,396.626,388.58,376.234,412.504,395.5028
171,413.357,432.483,430.712,375.113,393.926,409.1182
172,439.848,420.695,436.253,408.926,410.35,423.2144
173,401.583,390.228,404.084,430.446,392.454,403.759
174,430.316,414.158,450.274,385.779,418.019,419.7092
175,410.851,396.338,374.73,426.623,404.137,402.5358
176,452.73,426.186,399.225,411.18,458.669,429.598
177,405.318,412.079,378.461,434.451,435.043,413.0704
178,418.545,377.074,434.088,430.105,384.647,408.8918
179,401.682,435.898,377.495,410.118,411.108,407.2602
180,415.343,434.553,440.777,386.55,482.94,432.0326
181,410.288,443.554,436.151,419.888,404.319,422.840
182,379.594,469.994,388.315,453.862,412.874,420.9278
183,380.596,398.712,400.951,481.829,387.161,409.8498
184,423.892,446.373,429.121,379.688,434.862,422.7872
185,437.849,387.702,382.78,404.658,378.327,398.2632
186,429.8,387.929,378.066,396.697,365.76,391.6504
187,398.873,423.048,436.38,437.264,381.107,415.3344
188,380.066,424.791,386.247,419.205,397.462,401.5542
189,406.156,385.288,379.1,411.098,415.912,399.5108
190,388.583,382.999,437.206,408.541,408.895,405.2448
191,381.263,414.78,399.5,380.255,446.804,404.5204
192,451.251,377.795,378.512,408.574,388.172,400.8608
193,430.945,409.323,443.638,421.563,432.184,427.5306
194,404.608,407.185,435.298,388.498,436.924,414.5026
195,411.842,375.752,435.105,439.884,435.097,419.536
196,409.148,376.014,440.071,429.403,433.69,417.6652
197,380.522,359.264,437.992,400.595,374.652,390.605
198,402.46,415.321,415.63,463.554,435.715,426.536
199,406.983,398.265,390.116,439.097,409.516,408.7954
200,440.508,384.023,408.993,423.927,407.323,412.9548
201,412.083,441.244,422.714,407.404,404.15,417.519
202,430.523,440.922,421.924,438.044,393.257,424.934
203,442.109,398.922,435.659,405.926,420.868,420.6968
204,414.008,413.993,422.466,481.679,412.808,428.9908
205,392.679,484.686,423.576,435.213,424.837,432.1982
206,405.319,435.854,437.919,412.711,434.997,425.360
207,410.455,444.894,413.143,399.949,408.387,415.3656
208,403.744,407.271,403.035,395.411,432.822,408.4566
209,484.1,428.195,432.56,416.811,425.678,437.4688
210,412.252,433.439,379.358,385.504,391.742,400.459
211,407.025,415.989,413.878,388.488,412.491,407.5742
212,412.212,426.506,487.943,421.325,439.49,437.4952
213,382.157,438.381,420.994,437.872,390.05,413.8908
214,393.115,409.458,414.449,440.194,413.075,414.0582
215,396.947,382.272,437.567,430.944,410.19,411.584
216,440.576,419.005,478.709,394.083,383.236,423.1218
217,436.356,386.97,415.283,438.314,412.006,417.7858
218,400.361,397.236,436.817,431.059,436.576,420.4098
219,429.736,479.919,431.441,429.133,434.457,440.9372
220,442.323,381.537,383.186,444.377,424.427,415.170
221,444.148,429.981,430.202,365.158,418.211,417.540
222,410.474,448.971,378.629,385.21,407.894,406.2356
223,402.396,437.83,420.921,440.29,414.305,423.1484
224,416.878,439.089,378.844,379.893,437.367,410.4142
225,393.224,389.975,414.826,476.989,409.998,417.0024
226,443.276,403.886,384.275,443.227,422.281,419.389
227,439.953,400.865,385.586,412.709,407.573,409.3372
228,417.156,435.264,439.778,418.478,424.776,427.0904
229,450.092,382.762,416.145,485.388,431.407,433.1588
230,405.59,418.715,406.939,407.322,441.725,416.0582
231,403.129,383.977,476.953,461.56,471.964,439.5166
232,385.111,430.28,400.483,414.09,384.886,402.970
233,413.13,382.272,446.193,391.125,391.322,404.8084
234,445.481,427.709,478.598,402.305,388.267,428.472
235,413.348,397.784,407.478,411.756,423.995,410.8722
236,387.071,386.378,406.112,382.334,409.781,394.3352
237,446.034,405.722,421.83,406.39,420.413,420.0778
238,420.595,453.335,385.956,403.42,464.911,425.6434
239,408.678,406.856,437.945,420.635,385.996,412.022
240,444.928,482.19,419.724,415.608,449.649,442.4198
241,448.041,386.53,416.931,418.6,395.653,413.151
242,426.55,436.809,485.621,391.321,432.504,434.561
243,483.587,481.198,442.673,443.272,445.059,459.1578
244,424.222,428.289,419.653,433.532,426.952,426.5296
245,437.981,434.841,434.174,381.662,414.657,420.663
246,385.673,426.276,447.904,419.261,427.29,421.2808
247,417.972,394.647,447.257,440.593,440.407,428.1752
248,420.368,487.232,426.06,432.484,478.888,449.0064
249,444.766,430.07,415.476,416.384,439.609,429.261
250,444.727,415.141,439.257,439.357,411.884,430.0732
251,432.56,416.917,439.262,486.618,443.73,443.8174
252,447.593,450.392,443.83,418.704,440.213,440.1464
253,401.977,424.148,438.146,478.892,416.523,431.9372
254,418.565,427.883,423.644,414.429,445.366,425.9774
255,442.288,405.417,446.888,437.5,410.044,428.4274
256,431.513,400.104,443.026,437.719,446.621,431.7966
257,415.059,393.743,421.907,425.821,404.319,412.1698
258,440.332,438.97,487.917,385.113,407.943,432.055
259,442.118,423.128,447.629,387.667,452.454,430.5992
260,421.099,410.138,444.983,381.049,416.84,414.8218
261,443.408,390.085,446.366,406.742,406.44,418.6082
262,415.399,409.66,443.757,419.793,441.13,425.9478
263,419.171,387.455,441.261,428.674,391.802,413.6726
264,403.876,445.245,444.716,416.277,386.612,419.3452
265,435.591,418.616,408.562,389.675,386.726,407.834
266,410.248,430.247,427.141,417.958,392.183,415.5554
267,398.936,428.008,443.58,397.65,415.37,416.7088
268,418.128,412.636,441.946,413.595,421.848,421.6306
269,447.497,424.798,455.134,436.042,404.765,433.6472
270,411.987,458.696,392.9,432.523,483.497,435.9206
271,419.401,437.796,464.092,439.633,438.254,439.8352
272,412.255,449.546,424.057,445.142,447.201,435.6402
273,419.248,425.329,393.847,486.485,385.17,422.0158
274,433.069,401.214,417.213,425.036,486.296,432.5656
275,399.802,432.658,447.679,431.384,428.172,427.939
276,448.526,425.071,432.443,463.116,437.595,441.3502
277,396.513,447.814,453.45,442.49,442.156,436.4846
278,442.343,476.41,467.306,421.409,434.834,448.4604
279,393.831,444.923,411.268,385.987,417.941,410.790
280,442.393,421.648,438.329,445.332,431.091,435.7586
281,444.763,397.693,388.28,444.254,391.627,413.3234
282,422.229,430.897,485.862,390.966,411.244,428.2396
283,426.015,431.604,416.332,441.738,417.859,426.7096
284,479.614,406.775,424.209,482.767,447.127,448.0984
285,416.477,418.131,474.116,414.44,443.449,433.3226
286,490.185,420.067,439.229,413.161,415.83,435.6944
287,430.092,439.622,439.15,456.101,421.402,437.2734
288,389.639,455.562,399.255,407.625,484.346,427.2854
289,422.311,371.281,443.592,426.538,428.295,418.4034
290,435.16,399.66,399.892,434.461,414.144,416.6634
291,400.81,391.083,409.342,440.002,471.92,422.6314
292,399.778,395.797,409.868,448.112,412.163,413.1436
293,486.289,395.865,413.742,450.36,435.083,436.2678
294,448.744,408.323,446.5,417.476,437.939,431.7964
295,445.635,426.232,396.566,419.051,492.884,436.0736
296,449.894,411.815,420.822,477.952,427.039,437.5044
297,400.669,410.934,427.499,423.199,451.336,422.7274
298,454.653,412.792,435.83,390.835,394.882,417.7984
299,420.626,405.773,430.893,396.519,427.822,416.3266
300,397.483,440.538,447.854,431.212,398.146,423.0466
301,427.072,450.134,428.679,410.999,440.793,431.5354
302,426.259,405.525,402.2,470.02,449.94,430.7888
303,428.275,428.676,478.999,401.927,393.949,426.3652
304,422.739,448.51,395.481,446.059,403.936,423.345
305,426.367,450.854,414.652,444.077,394.542,426.0984
306,446.606,451.702,396.107,423.882,449.68,433.5954
307,419.322,441.6,425.564,396.967,429.022,422.495
308,425.134,432.916,416.172,406.546,446.653,425.4842
309,404.562,432.106,399.572,395.572,395.256,405.4136
310,444.937,432.409,425.312,437.922,440.234,436.1628
311,474.811,478.231,443.412,452.848,441.208,458.102
312,447.922,483.603,437.572,419.733,467.686,451.3032
313,455.223,490.693,453.83,451.238,459.51,462.0988
314,453.485,449.916,416.809,449.673,489.476,451.8718
315,478.939,450.044,428.706,406.047,419.789,436.705
316,448.821,425.153,418.636,433.125,446.075,434.362
317,451.588,413.404,422.542,443.682,425.838,431.4108
318,426.801,445.177,479.7,389.62,399.36,428.1316
319,435.042,439.002,436.108,418.796,392.78,424.3456
320,435.596,494.549,446.081,425.432,442.041,448.7398
321,496.86,434.155,456.821,394.11,439.81,444.3512
322,418.141,428.759,440.882,398.228,428.827,422.9674
323,452.031,457.485,452.023,463.801,496.241,464.3162
324,446.138,459.69,396.216,443.59,433.182,435.7632
325,415.502,420.994,425.42,393.144,411.758,413.3636
326,418.435,448.871,461.755,440.439,449.032,443.7064
327,465.765,446.799,442.297,432.511,420.201,441.5146
328,398.929,439.133,424.825,403.141,441.897,421.585
329,394.807,446.195,457.933,446.994,426.444,434.4746
330,416.6,450.782,403.005,447.748,433.86,430.399
331,426.275,459.129,495.934,491.861,462.34,467.1078
332,452.824,458.338,428.661,424.719,397.103,432.329
333,452.62,473.849,454.133,434.854,420.489,447.189
334,408.26,397.429,421.962,405.635,427.674,412.192
335,433.315,427.475,429.684,404.55,443.137,427.6322
336,426.323,439.978,447.727,432.407,422.83,433.853
337,448.626,411.037,392.334,393.279,400.03,409.0612
338,429.758,453.616,432.236,423.436,458.877,439.5846
339,408.17,463.591,394.893,394.223,482.174,428.6102
340,465.741,416.892,433.115,433.877,429.776,435.8802
341,492.495,487.314,411.859,444.867,397.903,446.8876
342,446.784,455.61,405.345,499.325,419.174,445.2476
343,397.023,455.981,449.172,453.772,472.528,445.6952
344,435.132,434.669,451.472,437.542,452.909,442.3448
345,400.001,449.426,435.937,473.383,406.797,433.1088
346,447.95,434.526,455.32,431.84,455.604,445.048
347,406.347,442.803,406.832,418.05,429.95,420.7964
348,426.808,442.003,453.801,410.814,425.075,431.7002
349,442.355,465.848,414.515,444.552,426.461,438.7462
350,421.749,424.42,402.611,405.127,414.797,413.7408
351,451.218,433.187,403.049,459.365,427.551,434.874
352,421.714,400.315,497.678,382.644,444.105,429.2912
353,421.535,469.034,432.564,393.753,499.315,443.2402
354,494.933,449.56,458.413,397.69,439.696,448.0584
355,425.556,451.605,436.655,409.031,415.422,427.6538
356,422.09,438.153,456.143,448.545,452.726,443.5314
357,399.13,415.235,485.501,430.572,454.051,436.8978
358,456.203,402.688,428.578,450.839,454.911,438.6438
359,408.911,403.877,445.031,398.852,404.658,412.2658
360,463.072,398.293,500.31,466.182,453.332,456.2378
361,431.106,492.144,434.137,469.598,409.097,447.2164
362,459.15,464.214,428.741,414.485,430.217,439.3614
363,416.091,448.713,411.717,426.568,455.235,431.6648
364,444.203,432.718,432.167,428.238,442.979,436.061
365,431.878,429.743,455.592,448.875,430.614,439.3404
366,431.579,454.358,446.231,455.197,492.101,455.8932
367,453.562,457.108,400.1,400.325,498.746,441.9682
368,410.913,410.471,447.457,456.165,406.126,426.2264
369,475.92,424.087,419.777,415.612,446.167,436.3126
370,454.566,436.838,417.84,421.722,455.63,437.3192
371,454.051,419.21,454.857,435.565,442.748,441.2862
372,400.17,458.837,401.7,433.775,479.605,434.8174
373,451.165,481.247,458.121,467.983,483.207,468.3446
374,425.584,470.042,490.047,435.602,435.149,451.2848
375,439.984,405.128,476.109,432.797,435.786,437.9608
376,436.056,459.049,454.958,423.745,417.727,438.307
377,500.325,434.731,446.402,434.17,398.497,442.825
378,455.496,418.921,457.372,460.485,401.617,438.7782
379,403.034,446.754,414.609,429.361,432.279,425.2074
380,418.474,454.787,437.845,431.984,505.038,449.6256
381,438.373,514.972,424.971,457.737,453.542,457.919
382,447.193,422.877,455.763,423.103,436.566,437.1004
383,445.996,458.4,476.092,438.686,435.613,450.9574
384,424.833,404.62,442.023,408.337,432.192,422.401
385,454.144,453.763,407.415,404.185,422.601,428.4216
386,438.305,438.216,509.256,459.242,453.975,459.7988
387,412.375,472.273,435.564,497.133,416.154,446.6998
388,501.597,444.197,409.104,455.464,438.913,449.855
389,442.854,458.433,422.47,435.446,414.73,434.7866
390,500.455,449.477,443.623,408.715,469.658,454.3856
391,464.391,502.325,495.379,442.027,459.76,472.7764
392,427.45,452.141,461.165,435.319,429.298,441.0746
393,449.491,445.522,459.463,487,500.744,468.444
394,402.59,477.138,436.931,414.798,422.794,430.8502
395,425.11,451.024,454.604,408.275,417.21,431.2446
396,452.948,424.508,414.995,448.663,457.569,439.7366
397,437.564,403.327,434.484,439.16,424.411,427.7892
398,444.746,434.232,446.681,449.715,431.179,441.3106
399,422.819,499.629,445.753,424.861,450.17,448.6464
400,416.617,506.735,424.312,446.462,456.492,450.1236
401,433.969,454.146,438.101,412.908,458.161,439.457
402,454.455,419.27,457.196,444.227,424.77,439.9836
403,415.809,437.037,407.782,426.121,493.96,436.1418
404,441.627,456.116,399.633,466.717,441.874,441.1934
405,404.123,448.911,459.117,433.074,426.192,434.2834
406,492.203,459.238,458.714,420.914,468.537,459.9212
407,453.696,406.83,482.837,437.031,404.824,437.0436
408,465.588,460.785,508.649,458.541,465.88,471.8886
409,415.905,473.207,448.78,459.631,485.541,456.6128
410,449.881,447.179,458.099,482.004,438.85,455.2026
411,416.285,416.041,418.052,494.844,456.826,440.4096
412,502.565,438.146,452.678,407.219,466.86,453.4936
413,461.994,458.703,464.082,441.684,455.011,456.2948
414,450.316,461.117,464.076,408.863,511.228,459.120
415,406.129,453.202,427.534,412.855,441.287,428.2014
416,459.756,474.152,439.601,433.25,445.18,450.3878
417,455.76,407.682,508.488,414.791,510.402,459.4246
418,438.549,448.434,436.712,409.364,464.809,439.5736
419,465.115,437.239,410.62,473.43,408.855,439.0518
420,424.383,456.217,490.785,460.95,412.28,448.923
421,461.846,427.315,419.765,457.284,469.012,447.0444
422,436.69,458.898,446.368,423.26,460.597,445.1626
423,408.007,462.331,431.227,439.81,425.119,433.2988
424,409.93,433.213,513.682,463.763,411.991,446.5158
425,408.169,470.907,466.953,508.772,513.554,473.671
426,459.385,443.12,434.858,518.112,464.951,464.0852
427,472.621,414.088,426.676,455.876,439.699,441.792
428,467.396,486.743,458.76,453.277,428.029,458.841
429,504.449,420.356,407.197,438.298,464.152,446.8904
430,430.898,436.934,437.52,426.224,453.648,437.0448
431,512.783,436.136,428.829,426.007,435.623,447.8756
432,436.258,451.074,461.699,439.16,514.533,460.5448
433,407.898,506.554,511.82,420.972,446.267,458.7022
434,453.272,504.142,467.017,508.573,410.864,468.7736
435,449.264,427.448,428.616,501.25,486.437,458.603
436,489.305,443.456,415.604,440.257,451.416,448.0076
437,457.336,428.95,421.995,458.284,460.93,445.499
438,453.438,436.713,444.347,464.157,444.577,448.6464
439,424.672,459.665,506.432,460.699,436.886,457.6708
440,466.012,430.028,466.774,457.67,439.417,451.9802
441,404.545,452.613,442.479,440.485,426.381,433.3006
442,452.346,470.486,419.259,461.41,416.118,443.9238
443,433.895,461.674,442.917,455.059,511.585,461.026
444,461.516,487.566,491.323,424.808,428.453,458.7332
445,440.186,465.179,446.85,428.577,515.16,459.1904
446,413.719,448.683,431.995,409.641,466.648,434.1372
447,514.319,431.637,495.289,519.971,442.325,480.7082
448,448.46,465.661,463.891,454.781,440.126,454.5838
449,430.753,412.459,466.806,466.487,410.181,437.3372
450,443.742,419.314,461.117,428.179,469.186,444.3076
451,406.67,507.771,425.42,440.694,416.879,439.4868
452,427.89,436.51,434.375,455.456,456.832,442.2126
453,457.758,440.772,440.252,457.327,488.249,456.8716
454,464.156,462.32,481.871,442.706,460.994,462.4094
455,426.391,460.555,429.514,418.759,508.894,448.8226
456,412.987,412.923,473.395,460.809,457.274,443.4776
457,464.387,474.504,521.107,451.717,426.774,467.6978
458,408.523,469.378,464.684,445.801,456.799,449.037
459,440.686,516.947,411.52,419.125,435.824,444.8204
460,413.102,418.196,462.886,429.409,453.788,435.4762
461,452.147,446.351,451.72,410.123,419.135,435.8952
462,483.916,468.573,464.396,437.578,431.089,457.1104
463,429.038,453.694,423.887,477.667,440.47,444.9512
464,413.007,415.063,464.913,439.901,427.468,432.0704
465,499.627,447.139,481.269,453.761,471.503,470.6598
466,461.781,441.065,465.29,460.415,446.529,455.016
467,447.969,439.106,452.429,460.123,523.349,464.5952
468,445.737,421.85,466.957,470.044,430.701,447.0578
469,414.856,509.139,434.077,461.004,413.447,446.5046
470,414.522,423.648,430.022,416.69,456.661,428.3086
471,421.451,489.154,434.635,430.412,432.251,441.5806
472,443.566,482.62,413.016,409.828,461.926,442.1912
473,435.364,461.905,442.632,415.167,444.021,439.8178
474,486.344,510.452,499.987,446.145,411.207,470.827
475,468.875,433.772,511.258,516.185,452.216,476.4612
476,470.025,470.501,491.286,464.807,466.269,472.5776
477,496.157,432.194,520.526,514.037,411.398,474.8624
478,462.612,468.42,425.95,432.012,446.878,447.1744
479,452.102,425.595,467.942,464.808,484.507,458.9908
480,420.846,462.239,443.804,446.29,411.709,436.9776
481,453.56,473.971,503.819,412.95,468.268,462.5136
482,466.012,459.481,522.159,449.285,464.51,472.2894
483,438.449,471.182,450.288,463.138,434.58,451.5274
484,494.872,521.75,422.623,429.654,433.512,460.4822
485,492.923,437.029,467.802,505.844,421.217,464.963
486,461.954,444.514,474.934,468.631,468.585,463.7236
487,435.222,513.708,438.299,516.137,515.652,483.8036
488,418.758,443.695,436.562,498.384,491.106,457.701
489,469.665,424.576,418.361,466.705,447.983,445.458
490,504.326,440.147,470.301,469.09,419.322,460.6372
491,515.979,427.135,507.903,508.695,467.952,485.5328
492,471.344,470.173,436.517,414.882,460.665,450.7162
493,495.372,503.978,430.228,421.379,445.482,459.2878
494,471.628,423.541,413.072,429.774,415.531,430.7092
495,418.738,517.015,484.869,429.41,511.135,472.2334
496,421.789,519.244,415.804,518.375,469.859,469.0142
497,462.337,412.201,461.925,465.908,425.241,445.5224
498,472.574,514.36,428.874,444.352,497.103,471.4526
499,461.309,473.668,471.12,451.034,413.854,454.197
500,438.024,418.051,413.727,516.644,445.931,446.4754
501,437.582,456.228,454.602,471.892,442.029,452.4666
502,470.417,413.728,428.22,437.889,498.092,449.6692
503,464.717,423.58,477.485,509.541,516.67,478.3986
504,475.455,417.358,472.881,415.279,450.751,446.3448
505,445.383,463.283,517.299,427.136,488.339,468.288
506,419.847,447.887,518.729,468.945,447.303,460.5422
507,448.214,431.718,450.082,471.345,446.602,449.5922
508,502.304,421.492,469.924,431.304,467.617,458.5282
509,417.712,502.787,420.152,468.261,424.469,446.6762
510,473.891,419.841,415.959,417.466,469.24,439.2794
511,423.69,502.44,460.714,453.582,466.763,461.4378
512,435.569,474.065,456.391,470.834,494.626,466.297
